/* XPM */
static char * objects_xpm[] = {
"128 96 5 1",
" 	s None	c None",
".	c black",
"X	c yellow",
"o	c white",
"O	c red",
"                                .............................   .............................                                   ",
"                                .XXXXXXXXXXXXXXXXXXXXXXXXXXX.   .XXXXXXXXXXXXXXXXXXXXXXXXXXX.                                   ",
"                                .XXXXXXXXXXXXXXXXXXXXXXXXXXX..  .XXXXXXXXXXXXXXXXXXXXXXXXXXX..    ......XXXXXXXXXXXXXXXX......  ",
"            oooooooo            .XXXXXXXXXXXXXXXXXXXXXXXXXXX..  .XXXXXXXXXXXXXXXXXXXXXXXXXXX..    ......XXXXXXXXXXXXXXXX......  ",
"            o......o            .XXXXXXXXXXXXXXXXXXXXXXXXXXX.X. .XXXX...XXXXXXXXXXXXX...XXXX.X.   ..XXXXXXXXXXXXXXXXXXXXXXXX..  ",
"           o.oooooo.o           .XXXXXXXXXXXXXXXXXXXXXXXXXXX.X. .XXXXX...XXXXXXXXXXX...XXXXX.X.   ..XXXXXXXXXXXXXXXXXXXXXXXX..  ",
"           o.oooooo.o           .XXXXXXXXXXXXXXXXXXXXXXXXXXX.XX..XXXXXX...XXXXXXXXX...XXXXXX.XX.  ..XX                    XX..  ",
"          o.oooooooo.o          .XXXXXXXXXXXXXXXXXXXXXXXXXXX.XX..XXXXXXX...XXXXXXX...XXXXXXX.XX.  ..XX                    XX..  ",
"          o.o..oo..o.o          .XXXXXXXXXXXXXXXXXXXXXXXXXXX.XX..XXXXXXXX...XXXXX...XXXXXXXX.XX.  XXXX                    XXXX  ",
"          o.oooooooo.o          .XXXXXXXXXXXXXXXXXXXXXXXXXXX.XX..XXXXXXXXX...XXX...XXXXXXXXX.XX.  XXXX                    XXXX  ",
"          oo.o....o.oo          .XXXXXXXXXXXXXXXXXXXXXXXXXXX.XX..XXXXXXXXXX...X...XXXXXXXXXX.XX.  XXXX                    XXXX  ",
"         oo..oo..oo..oo         .XXXXXXXXXXXXXXXXXXXXXXXXXXX.XX..XXXXXXXXXXX.....XXXXXXXXXXX.XX.  XXXX                    XXXX  ",
"         o....o..o....o         .XXXXXXXXXXXXXXXXXXXXXXXXXXX.XX..XXXXXXXXXXXX...XXXXXXXXXXXX.XX.  XXXX                    XXXX  ",
"         o.o..o..o..o.o         .XXXXXXXXXXXXXXXXXXXXXXXXXXX.XX..XXXXXXXXXXX.....XXXXXXXXXXX.XX.  XXXX                    XXXX  ",
"         o.o...oo...o.o         .XXXXXXXXXXXXXXXXXXXXXXXXXXX.XX..XXXXXXXXXX...X...XXXXXXXXXX.XX.  XXXX                    XXXX  ",
"        o.oo........oo.o        .XXXXXXXXXXXXXXXXXXXXXXXXXXX.XX..XXXXXXXXX...XXX...XXXXXXXXX.XX.  XXXX                    XXXX  ",
"        o.oo........oo.o        .XXXXXXXXXXXXXXXXXXXXXXXXXXX.XX..XXXXXXXX...XXXXX...XXXXXXXX.XX.  XXXX                    XXXX  ",
"       o.ooo........ooo.o       .XXXXXXXXXXXXXXXXXXXXXXXXXXX.XX..XXXXXXX...XXXXXXX...XXXXXXX.XX.  XXXX                    XXXX  ",
"       o.ooo........ooo.o       .XXXXXXXXXXXXXXXXXXXXXXXXXXX.XX..XXXXXX...XXXXXXXXX...XXXXXX.XX.  XXXX                    XXXX  ",
"       o.ooo........ooo.o       .XXXXXXXXXXXXXXXXXXXXXXXXXXX.XX..XXXXX...XXXXXXXXXXX...XXXXX.XX.  XXXX                    XXXX  ",
"        o.oo........oo.o        .XXXXXXXXXXXXXXXXXXXXXXXXXXX.XX..XXXX...XXXXXXXXXXXXX...XXXX.XX.  XXXX                    XXXX  ",
"        o.oo........oo.o        .XXXXXXXXXXXXXXXXXXXXXXXXXXX.XX..XXXXXXXXXXXXXXXXXXXXXXXXXXX.XX.  XXXX                    XXXX  ",
"        o.o..........o.o        .XXXXXXXXXXXXXXXXXXXXXXXXXXX.XX..XXXXXXXXXXXXXXXXXXXXXXXXXXX.XX.  XXXX                    XXXX  ",
"         o............o         .XXXXXXXXXXXXXXXXXXXXXXXXXXX.XX..XXXXXXXXXXXXXXXXXXXXXXXXXXX.XX.  XXXX                    XXXX  ",
"          o..........o          .............................XX..............................XX.  ..XX                    XX..  ",
"           o........oo          .XXXXXXXXXXXXXXXXXXXXXXXXXXX.XX..XXXXXXXXXXXXXXXXXXXXXXXXXXX.XX.  ..XX                    XX..  ",
"          o.o.oooo.o.o           .XXXXXXXXXXXXXXXXXXXXXXXXXXX.X. .XXXXXXXXXXXXXXXXXXXXXXXXXXX.X.  ..XXXXXXXXXXXXXXXXXXXXXXXX..  ",
"         o.....oo.....o          .XXXXXXXXXXXXXXXXXXXXXXXXXXX.X. .XXXXXXXXXXXXXXXXXXXXXXXXXXX.X.  ..XXXXXXXXXXXXXXXXXXXXXXXX..  ",
"        o......oo......o          .XXXXXXXXXXXXXXXXXXXXXXXXXXX..  .XXXXXXXXXXXXXXXXXXXXXXXXXXX..  ......XXXXXXXXXXXXXXXX......  ",
"       o.......oo.......o         .XXXXXXXXXXXXXXXXXXXXXXXXXXX..  .XXXXXXXXXXXXXXXXXXXXXXXXXXX..  ......XXXXXXXXXXXXXXXX......  ",
"      o..o..o..oo.oo..o..o         .XXXXXXXXXXXXXXXXXXXXXXXXXXX.   .XXXXXXXXXXXXXXXXXXXXXXXXXXX.                                ",
"      oooooooooooooooooooo         .............................   .............................                                ",
".............................   .............................   .............................                                   ",
".XXXXXXXXXXXXXXXXXXXXXXXXXXX.   .XXXXXXXXXXXXXXXXXXXXXXXXXXX.   .XXXXXXXXXXXXXXXXXXXXXXXXXXX.                                   ",
".XXXXXXXXXXXXXXXXXXXXXXXXXXX..  .XXXXXXXXXXXXXXXXXXXXXXXXXXX..  .XXXXXXXXXXXXXXXXXXXXXXXXXXX..    ......XXXXXXXXXXXXXXXX......  ",
".XXXXXXXXXXXXXXXXXXXXXXXXXXX..  .XXXXXXXXXXXXX.XXXXXXXXXXXXX..  .XXXXXXXXXXXXX.XXXXXXXXXXXXX..    ......XXXXXXXXXXXXXXXX......  ",
".XXXXXXXXXXXXXXXXXXXXXXXXXXX.X. .XXXXXXXXXXXX...XXXXXXXXXXXX.X. .XXXXXXXXXXXX...XXXXXXXXXXXX.X.   ..XXXXXXXXX......XXXXXXXXX..  ",
".XXXXXXXXXXXXXXXXXXXXXXXXXXX.X. .XXXXXXXXXXX.....XXXXXXXXXXX.X. .XXXXXXXXXXX.....XXXXXXXXXXX.X.   ..XXXXXXXX.oooooo.XXXXXXXX..  ",
".XXXXXXXXXXXXXXXXXXXXXXXXXXX.XX..XXXXXXXXXX.......XXXXXXXXXX.XX..XXXXXXXXXX.......XXXXXXXXXX.XX.  ..XX     o.oooooo.o     XX..  ",
".XXXXXXXXXXXXXXXXXXXXXXXXXXX.XX..XXXXXXXXX.........XXXXXXXXX.XX..XXXXXXXXX.........XXXXXXXXX.XX.  ..XX    o.oooooooo.o    XX..  ",
".XXXXXX.XXXXXXXXXXXXX.XXXXXX.XX..XXXXXXXXXXXXX.XXXXXXXXXXXXX.XX..XXXXXX.XXXXXX.XXXXXX.XXXXXX.XX.  XXXX    o.o..oo..o.o    XXXX  ",
".XXXXX..XXXXXXXXXXXXX..XXXXX.XX..XXXXXXXXXXXXX.XXXXXXXXXXXXX.XX..XXXXX..XXXXXX.XXXXXX..XXXXX.XX.  XXXX    o.oooooooo.o    XXXX  ",
".XXXX...XXXXXXXXXXXXX...XXXX.XX..XXXXXXXXXXXXX.XXXXXXXXXXXXX.XX..XXXX...XXXXXX.XXXXXX...XXXX.XX.  XXXX    oo.o....o.oo    XXXX  ",
".XXX....XXXXXXXXXXXXX....XXX.XX..XXXXXXXXXXXXX.XXXXXXXXXXXXX.XX..XXX....XXXXXX.XXXXXX....XXX.XX.  XXXX   oo..oo..oo..oo   XXXX  ",
".XX.......................XX.XX..XXXXXXXXXXXXX.XXXXXXXXXXXXX.XX..XX.......................XX.XX.  XXXX   o....o..o....o   XXXX  ",
".XXX....XXXXXXXXXXXXX....XXX.XX..XXXXXXXXXXXXX.XXXXXXXXXXXXX.XX..XXX....XXXXXX.XXXXXX....XXX.XX.  XXXX   o.o..o..o..o.o   XXXX  ",
".XXXX...XXXXXXXXXXXXX...XXXX.XX..XXXXXXXXXXXXX.XXXXXXXXXXXXX.XX..XXXX...XXXXXX.XXXXXX...XXXX.XX.  XXXX   o.o...oo...o.o   XXXX  ",
".XXXXX..XXXXXXXXXXXXX..XXXXX.XX..XXXXXXXXXXXXX.XXXXXXXXXXXXX.XX..XXXXX..XXXXXX.XXXXXX..XXXXX.XX.  XXXX  o.oo........oo.o  XXXX  ",
".XXXXXX.XXXXXXXXXXXXX.XXXXXX.XX..XXXXXXXXXXXXX.XXXXXXXXXXXXX.XX..XXXXXX.XXXXXX.XXXXXX.XXXXXX.XX.  XXXX  o.oo........oo.o  XXXX  ",
".XXXXXXXXXXXXXXXXXXXXXXXXXXX.XX..XXXXXXXXX.........XXXXXXXXX.XX..XXXXXXXXX.........XXXXXXXXX.XX.  XXXX o.ooo........ooo.o XXXX  ",
".XXXXXXXXXXXXXXXXXXXXXXXXXXX.XX..XXXXXXXXXX.......XXXXXXXXXX.XX..XXXXXXXXXX.......XXXXXXXXXX.XX.  XXXX o.ooo........ooo.o XXXX  ",
".XXXXXXXXXXXXXXXXXXXXXXXXXXX.XX..XXXXXXXXXXX.....XXXXXXXXXXX.XX..XXXXXXXXXXX.....XXXXXXXXXXX.XX.  XXXX o.ooo........ooo.o XXXX  ",
".XXXXXXXXXXXXXXXXXXXXXXXXXXX.XX..XXXXXXXXXXXX...XXXXXXXXXXXX.XX..XXXXXXXXXXXX...XXXXXXXXXXXX.XX.  XXXX  o.oo........oo.o  XXXX  ",
".XXXXXXXXXXXXXXXXXXXXXXXXXXX.XX..XXXXXXXXXXXXX.XXXXXXXXXXXXX.XX..XXXXXXXXXXXXX.XXXXXXXXXXXXX.XX.  XXXX  o.oo........oo.o  XXXX  ",
".XXXXXXXXXXXXXXXXXXXXXXXXXXX.XX..XXXXXXXXXXXXXXXXXXXXXXXXXXX.XX..XXXXXXXXXXXXXXXXXXXXXXXXXXX.XX.  XXXX  o.o..........o.o  XXXX  ",
".XXXXXXXXXXXXXXXXXXXXXXXXXXX.XX..XXXXXXXXXXXXXXXXXXXXXXXXXXX.XX..XXXXXXXXXXXXXXXXXXXXXXXXXXX.XX.  XXXX   o............o   XXXX  ",
".............................XX..............................XX..............................XX.  ..XX    o..........o    XX..  ",
".XXXXXXXXXXXXXXXXXXXXXXXXXXX.XX..XXXXXXXXXXXXXXXXXXXXXXXXXXX.XX..XXXXXXXXXXXXXXXXXXXXXXXXXXX.XX.  ..XX     o........oo    XX..  ",
" .XXXXXXXXXXXXXXXXXXXXXXXXXXX.X. .XXXXXXXXXXXXXXXXXXXXXXXXXXX.X. .XXXXXXXXXXXXXXXXXXXXXXXXXXX.X.  ..XXXXXXX.o.XXXX.o.XXXXXXX..  ",
" .XXXXXXXXXXXXXXXXXXXXXXXXXXX.X. .XXXXXXXXXXXXXXXXXXXXXXXXXXX.X. .XXXXXXXXXXXXXXXXXXXXXXXXXXX.X.  ..XXXXXX.....XX.....XXXXXX..  ",
"  .XXXXXXXXXXXXXXXXXXXXXXXXXXX..  .XXXXXXXXXXXXXXXXXXXXXXXXXXX..  .XXXXXXXXXXXXXXXXXXXXXXXXXXX..  .....XX......XX......XX.....  ",
"  .XXXXXXXXXXXXXXXXXXXXXXXXXXX..  .XXXXXXXXXXXXXXXXXXXXXXXXXXX..  .XXXXXXXXXXXXXXXXXXXXXXXXXXX..  .....X.......XX.......X.....  ",
"   .XXXXXXXXXXXXXXXXXXXXXXXXXXX.   .XXXXXXXXXXXXXXXXXXXXXXXXXXX.   .XXXXXXXXXXXXXXXXXXXXXXXXXXX.       .. ..  .  .  .. ..       ",
"   .............................   .............................   .............................                                ",
".............................   .............................   .............................   .............................   ",
".OOOOOOOOOOOOOOOOOOOOOOOOOOO.   .OOOOOOOOOOOOOOOOOOOOOOOOOOO.   .OOOOOOOOOOOOOOOOOOOOOOOOOOO.   .OOOOOOOOOOOOOOOOOOOOOOOOOOO.   ",
".OOOOOOOOOOOOOOOOOOOOOOOOOOO..  .OOOOOOOOOOOOOOOOOOOOOOOOOOO..  .OOOOOOOOOOOOOOOOOOOOOOOOOOO..  .OOOOOOOOOOOOOOOOOOOOOOOOOOO..  ",
".OOOOOOOOOOOOO.OOOOOOOOOOOOO..  .OOOOOOOOOOOOOOOOOOOOOOOOOOO..  .OOOOOOOOOOOOOOOOOOOOOOOOOOO..  .OOOOOOOOOOOOOOOOOOOOOOOOOOO..  ",
".OOOOOOOOOOOO...OOOOOOOOOOOO.X. .OOOOOOOOOOOOOOOOOOOOOOOOOOO.X. .OOOOOOOOOOOOO.OOOOOOOOOOOOO.X. .OOOOOOOOOOOOOOOOOOOOOOOOOOO.X. ",
".OOOOOOOOOOO.....OOOOOOOOOOO.X. .OOOOOOOOOOOOOOOOOOOOOOOOOOO.X. .OOOOOOOOOOOOO.OOOOOOOOOOOOO.X. .OOOOOOOOOOOOOOOOOOOOOOOOOOO.X. ",
".OOOOOOOOOO.......OOOOOOOOOO.XX..OOOOOOOOOOOOOOOOOOOOOOOOOOO.XX..OOOOOOOOOOOOO.OOOOOOOOOOOOO.XX..OOOOOOOOOOOOOOOOOOOOOOOOOOO.XX.",
".OOOOOOOOO.........OOOOOOOOO.XX..OOOOOOOOOOOOOOOOOOOOOOOOOOO.XX..OOOOOOOOOOOOO.OOOOOOOOOOOOO.XX..OOOOOOOOOOOOOOOOOOOOOOOOOOO.XX.",
".OOOOOOOOOOOOO.OOOOOOOOOOOOO.XX..OOOOOO.OOOOOOOOOOOOOOOOOOOO.XX..OOOOOOOOOOOOO.OOOOOOOOOOOOO.XX..OOOOOOOOOOOOOOOOOOOO.OOOOOO.XX.",
".OOOOOOOOOOOOO.OOOOOOOOOOOOO.XX..OOOOO..OOOOOOOOOOOOOOOOOOOO.XX..OOOOOOOOOOOOO.OOOOOOOOOOOOO.XX..OOOOOOOOOOOOOOOOOOOO..OOOOO.XX.",
".OOOOOOOOOOOOO.OOOOOOOOOOOOO.XX..OOOO...OOOOOOOOOOOOOOOOOOOO.XX..OOOOOOOOOOOOO.OOOOOOOOOOOOO.XX..OOOOOOOOOOOOOOOOOOOO...OOOO.XX.",
".OOOOOOOOOOOOO.OOOOOOOOOOOOO.XX..OOO....OOOOOOOOOOOOOOOOOOOO.XX..OOOOOOOOOOOOO.OOOOOOOOOOOOO.XX..OOOOOOOOOOOOOOOOOOOO....OOO.XX.",
".OOOOOOOOOOOOO.OOOOOOOOOOOOO.XX..OO.....................OOOO.XX..OOOOOOOOOOOOO.OOOOOOOOOOOOO.XX..OOO......................OO.XX.",
".OOOOOOOOOOOOO.OOOOOOOOOOOOO.XX..OOO....OOOOOOOOOOOOOOOOOOOO.XX..OOOOOOOOOOOOO.OOOOOOOOOOOOO.XX..OOOOOOOOOOOOOOOOOOOO....OOO.XX.",
".OOOOOOOOOOOOO.OOOOOOOOOOOOO.XX..OOOO...OOOOOOOOOOOOOOOOOOOO.XX..OOOOOOOOOOOOO.OOOOOOOOOOOOO.XX..OOOOOOOOOOOOOOOOOOOO...OOOO.XX.",
".OOOOOOOOOOOOO.OOOOOOOOOOOOO.XX..OOOOO..OOOOOOOOOOOOOOOOOOOO.XX..OOOOOOOOOOOOO.OOOOOOOOOOOOO.XX..OOOOOOOOOOOOOOOOOOOO..OOOOO.XX.",
".OOOOOOOOOOOOO.OOOOOOOOOOOOO.XX..OOOOOO.OOOOOOOOOOOOOOOOOOOO.XX..OOOOOOOOOOOOO.OOOOOOOOOOOOO.XX..OOOOOOOOOOOOOOOOOOOO.OOOOOO.XX.",
".OOOOOOOOOOOOO.OOOOOOOOOOOOO.XX..OOOOOOOOOOOOOOOOOOOOOOOOOOO.XX..OOOOOOOOO.........OOOOOOOOO.XX..OOOOOOOOOOOOOOOOOOOOOOOOOOO.XX.",
".OOOOOOOOOOOOO.OOOOOOOOOOOOO.XX..OOOOOOOOOOOOOOOOOOOOOOOOOOO.XX..OOOOOOOOOO.......OOOOOOOOOO.XX..OOOOOOOOOOOOOOOOOOOOOOOOOOO.XX.",
".OOOOOOOOOOOOO.OOOOOOOOOOOOO.XX..OOOOOOOOOOOOOOOOOOOOOOOOOOO.XX..OOOOOOOOOOO.....OOOOOOOOOOO.XX..OOOOOOOOOOOOOOOOOOOOOOOOOOO.XX.",
".OOOOOOOOOOOOO.OOOOOOOOOOOOO.XX..OOOOOOOOOOOOOOOOOOOOOOOOOOO.XX..OOOOOOOOOOOO...OOOOOOOOOOOO.XX..OOOOOOOOOOOOOOOOOOOOOOOOOOO.XX.",
".OOOOOOOOOOOOOOOOOOOOOOOOOOO.XX..OOOOOOOOOOOOOOOOOOOOOOOOOOO.XX..OOOOOOOOOOOOO.OOOOOOOOOOOOO.XX..OOOOOOOOOOOOOOOOOOOOOOOOOOO.XX.",
".OOOOOOOOOOOOOOOOOOOOOOOOOOO.XX..OOOOOOOOOOOOOOOOOOOOOOOOOOO.XX..OOOOOOOOOOOOOOOOOOOOOOOOOOO.XX..OOOOOOOOOOOOOOOOOOOOOOOOOOO.XX.",
".OOOOOOOOOOOOOOOOOOOOOOOOOOO.XX..OOOOOOOOOOOOOOOOOOOOOOOOOOO.XX..OOOOOOOOOOOOOOOOOOOOOOOOOOO.XX..OOOOOOOOOOOOOOOOOOOOOOOOOOO.XX.",
".............................XX..............................XX..............................XX..............................XX.",
".XXXXXXXXXXXXXXXXXXXXXXXXXXX.XX..XXXXXXXXXXXXXXXXXXXXXXXXXXX.XX..XXXXXXXXXXXXXXXXXXXXXXXXXXX.XX..XXXXXXXXXXXXXXXXXXXXXXXXXXX.XX.",
" .XXXXXXXXXXXXXXXXXXXXXXXXXXX.X. .XXXXXXXXXXXXXXXXXXXXXXXXXXX.X. .XXXXXXXXXXXXXXXXXXXXXXXXXXX.X. .XXXXXXXXXXXXXXXXXXXXXXXXXXX.X.",
" .XXXXXXXXXXXXXXXXXXXXXXXXXXX.X. .XXXXXXXXXXXXXXXXXXXXXXXXXXX.X. .XXXXXXXXXXXXXXXXXXXXXXXXXXX.X. .XXXXXXXXXXXXXXXXXXXXXXXXXXX.X.",
"  .XXXXXXXXXXXXXXXXXXXXXXXXXXX..  .XXXXXXXXXXXXXXXXXXXXXXXXXXX..  .XXXXXXXXXXXXXXXXXXXXXXXXXXX..  .XXXXXXXXXXXXXXXXXXXXXXXXXXX..",
"  .XXXXXXXXXXXXXXXXXXXXXXXXXXX..  .XXXXXXXXXXXXXXXXXXXXXXXXXXX..  .XXXXXXXXXXXXXXXXXXXXXXXXXXX..  .XXXXXXXXXXXXXXXXXXXXXXXXXXX..",
"   .XXXXXXXXXXXXXXXXXXXXXXXXXXX.   .XXXXXXXXXXXXXXXXXXXXXXXXXXX.   .XXXXXXXXXXXXXXXXXXXXXXXXXXX.   .XXXXXXXXXXXXXXXXXXXXXXXXXXX.",
"   .............................   .............................   .............................   ............................."};
